{
  "cviceni": {
    "version": {
      "global": "<%= version %>",
      "content": 4
    },
    "katalog": [
      "public",
      "test"
    ],
    "language": "cs",
    "slug": "proc-ocistovali-kravy",
    "nazev": "Proč očišťovali krávy?",
    "autor": [
      "Kamil Činátl"
    ],
    "klicovaSlova": {
      "rvp": [
        "Československo 70. léta"
      ],
      "koncept": [
        "každodennost",
        "člověk a životní prostředí"
      ],
      "b4": [
        "dobové perspektivy"
      ],
      "historylab": [
        "formulujeme a ověřujeme hypotézu"
      ]
    },
    "casovaOsa": {
      "roky": [
        1979
      ],
      "epochy": [
        {
          "refId": "czech",
          "obdobi": [
            "normalizace"
          ]
        },
        {
          "refId": "world",
          "obdobi": []
        }
      ]
    },
    "anotace": {
      "ucitel": "Snímek žáky konfrontuje s nezvyklou situací. Zemědělci v ochranných oděvech cvičně provádějí chemickou očistu dobytka od zamoření. Zajímavou fotografii využijeme k tomu, aby se žáci pokusili formulovat hypotézy, které si posléze ověří s pomocí dobového popisku fotografie. Hravou formou se seznámí s fenoménem civilní obrany v období normalizace.",
      "verejna": "Už jste viděli ty krávy? Ty divné lidi kolem? Co se děje na fotografii? Začtěte se do dobového popisku a zkuste porozumět tomu, co dělají lidé zachycení na snímku. Dozvíte něco více o studené válce a normalizaci."
    },
    "trvani": 25,
    "obtiznost": "nízká",
    "funkce": [
      "lupa",
      "text",
      "svg",
      "znacky"
    ],
    "pdf": {
      "doporucenyPostup": "proc-ocistovali-kravy.pdf"
    },
    "uvodniObrazek": "proc-ocistovali-kravy/pic-00-1280w.jpg",
    "id": 46
  },
  "slajd": [
    {
      "zadani": {
        "hlavni": "Prohlédněte si fotografii.",
        "rozsirujici": ""
      },
      "napoveda": {
        "aktivity": [
          "lupa"
        ],
        "text": "Při kliknutí levým tlačítkem do obrazu lupa přiblíží část obrazu ve výřezu."
      },
      "prameny": [
        "proc-ocistovali-kravy/pic-00-1280w.jpg"
      ]
    },
    {
      "class": [
        "half-slide-previous"
      ],
      "zadani": {
        "hlavni": "Označte důležité prvky na fotografii a popište je.",
        "rozsirujici": ""
      },
      "napoveda": {
        "aktivity": [
          "svg"
        ],
        "text": "Tahem myši levým tlačítkem kreslíte do obrazu. Nakliknutím na nakreslený tvar pravým tlačítkem otevřete menu s nabídkou úkonů: (T) doplnit textový komentář, (X) smazat nakliknutý objekt."
      },
      "svg": {
        "soubory": [
          {
            "id": "svg-1",
            "soubor": "proc-ocistovali-kravy/pic-00-1280w.jpg",
            "barvy": [
              "blue"
            ],
            "funkce": [
              "text",
              "znacky"
            ]
          }
        ]
      }
    },
    {
      "class": [
        "half-slide-active"
      ],
      "zadani": {
        "hlavni": "Co dělají lidé na snímku?",
        "rozsirujici": ""
      },
      "napoveda": {
        "aktivity": [
          "text"
        ],
        "text": "Do boxu pro text zapisujete odpověď na otázku, nebo jiný komentář (dle zadání)."
      },
      "uzivatelskyText": {
        "otazky": [
          {
            "id": "text-1",
            "zadani": "",
            "instrukce": "Myslím si, že…",
            "minDelka": 2,
            "maxDelka": 400
          }
        ]
      }
    },
    {
      "class": [
        "half-slide-previous"
      ],
      "zadani": {
        "hlavni": "Přečtete si dobovou popisku k fotografii. Nově zjištěné informace doplňte do fotografie červeně.",
        "rozsirujici": ""
      },
      "napoveda": {
        "aktivity": [
          "svg"
        ],
        "text": "Tahem myši levým tlačítkem kreslíte do obrazu. Nakliknutím na nakreslený tvar pravým tlačítkem otevřete menu s nabídkou úkonů: (T) doplnit textový komentář, (X) smazat nakliknutý objekt."
      },
      "popisky": [
        "„Praktickou ukázku organizace a výcviku jednotek civilní obrany v zemědělském závodě předvedli 28. května 1979 novinářům zemědělci v JZD Mezno na benešovském okrese. Na snímku veterinární očista dojnic a zjišťování stupně radioaktivního zamoření.&rdquo; Foto Libor Hajský. Zdroj: ČTK"
      ],
      "svg": {
        "soubory": [
          {
            "id": "svg-2",
            "soubor": "proc-ocistovali-kravy/pic-00-1280w.jpg",
            "duplikovat": [
              "svg-1"
            ],
            "barvy": [
              "red"
            ],
            "funkce": [
              "text",
              "znacky"
            ]
          }
        ]
      }
    },
    {
      "class": [
        "half-slide-active"
      ],
      "zadani": {
        "hlavni": "Odpovězte na otázky.",
        "rozsirujici": ""
      },
      "napoveda": {
        "aktivity": [
          "text"
        ],
        "text": "Do boxu pro text zapisujete odpověď na otázku, nebo jiný komentář (dle zadání)."
      },
      "uzivatelskyText": {
        "otazky": [
          {
            "id": "text-3",
            "zadani": "Proč očištovali krávy?",
            "instrukce": "Myslím si, že…",
            "minDelka": 2,
            "maxDelka": 400
          },
          {
            "id": "text-4",
            "zadani": "Proč očistu předváděli novinářům?",
            "instrukce": "Myslím si, že…",
            "minDelka": 2,
            "maxDelka": 400
          }
        ]
      }
    }
  ]
}
